<svg width="343" height="219" viewBox="0 0 343 219" fill="none" xmlns="http://www.w3.org/2000/svg">
<g filter="url(#filter0_d_47_241)">
<path fill-rule="evenodd" clip-rule="evenodd" d="M166.357 47.7939C164.675 46.635 162.702 45.4316 160.388 44.1037L114.816 17.9076C98.0164 8.26557 94.6459 7.28563 79.8473 15.8252L34.3103 42.0738C17.5104 51.7508 14.9825 54.1832 15.0001 71.2273L15.0352 123.654C15.0528 142.991 15.8954 146.386 30.7116 154.89L76.2837 181.086C93.0836 190.746 96.4541 191.708 111.253 183.169L156.79 156.92C160.6 154.725 163.676 152.904 166.155 151.201C167.837 152.36 169.809 153.563 172.121 154.89L217.694 181.086C234.493 190.746 237.864 191.708 252.663 183.169L298.2 156.92C314.999 147.243 317.527 144.828 317.51 127.784L317.475 75.3395C317.457 56.0031 316.615 52.6082 301.798 44.1037L256.226 17.9076C239.426 8.26557 236.056 7.28563 221.257 15.8252L175.72 42.0738C171.911 44.268 168.835 46.0898 166.357 47.7939Z" fill="#FF8B99"/>
</g>
<path d="M86.1477 75.9897C86.1477 78.5418 85.6529 80.7554 84.6633 82.6304C83.6737 84.5054 82.2935 86.0418 80.5227 87.2397C78.7519 88.4116 76.6685 89.2319 74.2727 89.7007V90.0132C78.804 90.5861 82.2024 92.0444 84.468 94.3882C86.7597 96.7319 87.9055 99.8049 87.9055 103.607C87.9055 106.914 87.1243 109.844 85.5618 112.396C84.0253 114.948 81.6555 116.953 78.4524 118.412C75.2753 119.844 71.1998 120.56 66.2258 120.56C63.205 120.56 60.4055 120.313 57.8274 119.818C55.2753 119.349 52.8274 118.555 50.4836 117.435V111.341C52.8534 112.513 55.4316 113.438 58.218 114.115C61.0045 114.766 63.6998 115.091 66.304 115.091C71.5123 115.091 75.2753 114.063 77.593 112.005C79.9107 109.922 81.0696 107.083 81.0696 103.49C81.0696 101.016 80.4185 99.0236 79.1165 97.5132C77.8404 95.9767 75.9915 94.8569 73.5696 94.1538C71.1737 93.4246 68.2831 93.0601 64.8977 93.0601H59.1946V87.5132H64.9368C68.0357 87.5132 70.6659 87.0575 72.8274 86.146C74.9889 85.2345 76.6295 83.9585 77.7493 82.3179C78.8951 80.6512 79.468 78.6851 79.468 76.4194C79.468 73.5288 78.5045 71.3022 76.5774 69.7397C74.6503 68.1512 72.0331 67.3569 68.7258 67.3569C66.6946 67.3569 64.8456 67.5653 63.179 67.9819C61.5123 68.3986 59.9498 68.9715 58.4915 69.7007C57.0331 70.4299 55.5748 71.2762 54.1165 72.2397L50.8352 67.7866C52.9185 66.172 55.4576 64.7788 58.4524 63.6069C61.4472 62.4351 64.8456 61.8491 68.6477 61.8491C74.481 61.8491 78.856 63.1772 81.7727 65.8335C84.6894 68.4897 86.1477 71.8752 86.1477 75.9897ZM134.351 91.146C134.351 95.7814 133.999 99.922 133.296 103.568C132.593 107.214 131.486 110.3 129.976 112.826C128.465 115.352 126.512 117.279 124.116 118.607C121.721 119.909 118.843 120.56 115.484 120.56C111.239 120.56 107.723 119.401 104.937 117.083C102.176 114.766 100.106 111.419 98.7258 107.044C97.3717 102.643 96.6946 97.3439 96.6946 91.146C96.6946 85.0522 97.3066 79.8179 98.5305 75.4429C99.7805 71.0418 101.786 67.6694 104.546 65.3257C107.307 62.9559 110.952 61.771 115.484 61.771C119.781 61.771 123.322 62.9429 126.109 65.2866C128.895 67.6043 130.965 70.9637 132.32 75.3647C133.674 79.7397 134.351 85.0002 134.351 91.146ZM103.218 91.146C103.218 96.4585 103.622 100.886 104.429 104.427C105.236 107.969 106.538 110.625 108.335 112.396C110.158 114.141 112.541 115.013 115.484 115.013C118.426 115.013 120.796 114.141 122.593 112.396C124.416 110.651 125.731 108.008 126.538 104.466C127.372 100.925 127.788 96.4845 127.788 91.146C127.788 85.9116 127.385 81.5366 126.577 78.021C125.77 74.4793 124.468 71.8231 122.671 70.0522C120.874 68.2554 118.478 67.3569 115.484 67.3569C112.489 67.3569 110.093 68.2554 108.296 70.0522C106.499 71.8231 105.197 74.4793 104.39 78.021C103.609 81.5366 103.218 85.9116 103.218 91.146Z" fill="white"/>
<path d="M202.218 119.779L225.656 68.6069H194.523V62.6694H232.609V67.6694L209.327 119.779H202.218ZM278.351 91.146C278.351 95.7814 277.999 99.922 277.296 103.568C276.593 107.214 275.486 110.3 273.976 112.826C272.465 115.352 270.512 117.279 268.116 118.607C265.721 119.909 262.843 120.56 259.484 120.56C255.239 120.56 251.723 119.401 248.937 117.083C246.176 114.766 244.106 111.419 242.726 107.044C241.372 102.643 240.695 97.3439 240.695 91.146C240.695 85.0522 241.307 79.8179 242.531 75.4429C243.781 71.0418 245.786 67.6694 248.546 65.3257C251.307 62.9559 254.952 61.771 259.484 61.771C263.781 61.771 267.322 62.9429 270.109 65.2866C272.895 67.6043 274.965 70.9637 276.32 75.3647C277.674 79.7397 278.351 85.0002 278.351 91.146ZM247.218 91.146C247.218 96.4585 247.622 100.886 248.429 104.427C249.236 107.969 250.538 110.625 252.335 112.396C254.158 114.141 256.541 115.013 259.484 115.013C262.426 115.013 264.796 114.141 266.593 112.396C268.416 110.651 269.731 108.008 270.538 104.466C271.372 100.925 271.788 96.4845 271.788 91.146C271.788 85.9116 271.385 81.5366 270.577 78.021C269.77 74.4793 268.468 71.8231 266.671 70.0522C264.874 68.2554 262.478 67.3569 259.484 67.3569C256.489 67.3569 254.093 68.2554 252.296 70.0522C250.499 71.8231 249.197 74.4793 248.39 78.021C247.609 81.5366 247.218 85.9116 247.218 91.146Z" fill="white"/>
<path d="M160.265 110.938C160.265 109.115 160.707 107.826 161.593 107.07C162.478 106.289 163.559 105.898 164.835 105.898C166.163 105.898 167.283 106.289 168.194 107.07C169.106 107.826 169.562 109.115 169.562 110.938C169.562 112.734 169.106 114.049 168.194 114.883C167.283 115.69 166.163 116.094 164.835 116.094C163.559 116.094 162.478 115.69 161.593 114.883C160.707 114.049 160.265 112.734 160.265 110.938ZM160.265 76.2891C160.265 74.4141 160.707 73.099 161.593 72.3438C162.478 71.5625 163.559 71.1719 164.835 71.1719C166.163 71.1719 167.283 71.5625 168.194 72.3438C169.106 73.099 169.562 74.4141 169.562 76.2891C169.562 78.0599 169.106 79.349 168.194 80.1562C167.283 80.9635 166.163 81.3672 164.835 81.3672C163.559 81.3672 162.478 80.9635 161.593 80.1562C160.707 79.349 160.265 78.0599 160.265 76.2891Z" fill="white"/>
<path d="M53.2571 137.008C52.7102 137.008 52.2206 137.107 51.7883 137.305C51.3612 137.503 50.9993 137.789 50.7024 138.164C50.4055 138.534 50.179 138.984 50.0227 139.516C49.8665 140.042 49.7883 140.635 49.7883 141.297C49.7883 142.182 49.9133 142.945 50.1633 143.586C50.4133 144.221 50.7935 144.711 51.304 145.055C51.8144 145.393 52.4602 145.562 53.2415 145.562C53.7258 145.562 54.1972 145.516 54.6555 145.422C55.1139 145.328 55.5878 145.201 56.0774 145.039V146.633C55.6139 146.815 55.1451 146.948 54.6711 147.031C54.1972 147.115 53.6503 147.156 53.0305 147.156C51.8639 147.156 50.8951 146.914 50.1243 146.43C49.3586 145.945 48.7857 145.263 48.4055 144.383C48.0305 143.503 47.843 142.471 47.843 141.289C47.843 140.424 47.9628 139.633 48.2024 138.914C48.442 138.195 48.7909 137.576 49.2493 137.055C49.7076 136.529 50.2727 136.125 50.9446 135.844C51.6217 135.557 52.3951 135.414 53.2649 135.414C53.8378 135.414 54.4003 135.479 54.9524 135.609C55.5097 135.734 56.0253 135.914 56.4993 136.148L55.843 137.695C55.4472 137.508 55.0331 137.346 54.6008 137.211C54.1685 137.076 53.7206 137.008 53.2571 137.008ZM65.9993 142.656C65.9993 143.375 65.9055 144.013 65.718 144.57C65.5305 145.128 65.2571 145.599 64.8977 145.984C64.5383 146.365 64.106 146.656 63.6008 146.859C63.0956 147.057 62.5253 147.156 61.8899 147.156C61.2961 147.156 60.7519 147.057 60.2571 146.859C59.7623 146.656 59.3326 146.365 58.968 145.984C58.6086 145.599 58.33 145.128 58.1321 144.57C57.9342 144.013 57.8352 143.375 57.8352 142.656C57.8352 141.703 57.9993 140.896 58.3274 140.234C58.6607 139.568 59.1347 139.06 59.7493 138.711C60.3639 138.362 61.0956 138.188 61.9446 138.188C62.7415 138.188 63.4446 138.362 64.054 138.711C64.6633 139.06 65.1399 139.568 65.4836 140.234C65.8274 140.901 65.9993 141.708 65.9993 142.656ZM59.7258 142.656C59.7258 143.286 59.8014 143.826 59.9524 144.273C60.1086 144.721 60.3482 145.065 60.6711 145.305C60.9941 145.539 61.4107 145.656 61.9211 145.656C62.4316 145.656 62.8482 145.539 63.1711 145.305C63.4941 145.065 63.731 144.721 63.8821 144.273C64.0331 143.826 64.1086 143.286 64.1086 142.656C64.1086 142.026 64.0331 141.492 63.8821 141.055C63.731 140.612 63.4941 140.276 63.1711 140.047C62.8482 139.812 62.429 139.695 61.9133 139.695C61.1529 139.695 60.5982 139.951 60.2493 140.461C59.9003 140.971 59.7258 141.703 59.7258 142.656ZM71.0149 147.156C69.9836 147.156 69.1555 146.781 68.5305 146.031C67.9107 145.276 67.6008 144.164 67.6008 142.695C67.6008 141.211 67.9159 140.089 68.5461 139.328C69.1816 138.568 70.0175 138.188 71.054 138.188C71.4915 138.188 71.8743 138.247 72.2024 138.367C72.5305 138.482 72.8118 138.638 73.0461 138.836C73.2857 139.034 73.4889 139.255 73.6555 139.5H73.7415C73.7154 139.339 73.6842 139.107 73.6477 138.805C73.6165 138.497 73.6008 138.214 73.6008 137.953V134.844H75.4446V147H74.0071L73.679 145.82H73.6008C73.4446 146.07 73.2467 146.297 73.0071 146.5C72.7727 146.698 72.4915 146.857 72.1633 146.977C71.8404 147.096 71.4576 147.156 71.0149 147.156ZM71.5305 145.664C72.317 145.664 72.8717 145.438 73.1946 144.984C73.5175 144.531 73.6842 143.852 73.6946 142.945V142.703C73.6946 141.734 73.5383 140.992 73.2258 140.477C72.9133 139.956 72.343 139.695 71.5149 139.695C70.8534 139.695 70.3482 139.964 69.9993 140.5C69.6555 141.031 69.4836 141.773 69.4836 142.727C69.4836 143.68 69.6555 144.409 69.9993 144.914C70.3482 145.414 70.8586 145.664 71.5305 145.664ZM81.5227 138.188C82.2935 138.188 82.955 138.346 83.5071 138.664C84.0592 138.982 84.4836 139.432 84.7805 140.016C85.0774 140.599 85.2258 141.297 85.2258 142.109V143.094H79.4524C79.4732 143.932 79.6972 144.578 80.1243 145.031C80.5566 145.484 81.1607 145.711 81.9368 145.711C82.4889 145.711 82.9836 145.659 83.4211 145.555C83.8639 145.445 84.3196 145.286 84.7883 145.078V146.57C84.356 146.773 83.9159 146.922 83.468 147.016C83.0201 147.109 82.4836 147.156 81.8586 147.156C81.0097 147.156 80.2623 146.992 79.6165 146.664C78.9758 146.331 78.4732 145.836 78.1086 145.18C77.7493 144.523 77.5696 143.708 77.5696 142.734C77.5696 141.766 77.7336 140.943 78.0618 140.266C78.3899 139.589 78.8508 139.073 79.4446 138.719C80.0383 138.365 80.731 138.188 81.5227 138.188ZM81.5227 139.57C80.9446 139.57 80.4758 139.758 80.1165 140.133C79.7623 140.508 79.554 141.057 79.4915 141.781H83.429C83.4237 141.349 83.3508 140.966 83.2102 140.633C83.0748 140.299 82.8665 140.039 82.5852 139.852C82.3092 139.664 81.955 139.57 81.5227 139.57ZM91.7336 138.188C92.7597 138.188 93.5826 138.562 94.2024 139.312C94.8274 140.062 95.1399 141.177 95.1399 142.656C95.1399 143.635 94.9941 144.461 94.7024 145.133C94.4159 145.799 94.0123 146.305 93.4915 146.648C92.9758 146.987 92.3743 147.156 91.6868 147.156C91.2493 147.156 90.8691 147.099 90.5461 146.984C90.2232 146.87 89.9472 146.721 89.718 146.539C89.4889 146.352 89.2961 146.148 89.1399 145.93H89.0305C89.0566 146.138 89.08 146.37 89.1008 146.625C89.1269 146.875 89.1399 147.104 89.1399 147.312V150.836H87.2961V138.352H88.7961L89.054 139.547H89.1399C89.3014 139.302 89.4967 139.076 89.7258 138.867C89.9602 138.659 90.2415 138.495 90.5696 138.375C90.9029 138.25 91.2909 138.188 91.7336 138.188ZM91.2415 139.688C90.7362 139.688 90.33 139.789 90.0227 139.992C89.7206 140.19 89.4993 140.49 89.3586 140.891C89.2232 141.292 89.1503 141.794 89.1399 142.398V142.656C89.1399 143.297 89.205 143.841 89.3352 144.289C89.4706 144.732 89.692 145.07 89.9993 145.305C90.3118 145.534 90.7336 145.648 91.2649 145.648C91.7128 145.648 92.0826 145.526 92.3743 145.281C92.6711 145.036 92.8925 144.688 93.0383 144.234C93.1842 143.781 93.2571 143.247 93.2571 142.633C93.2571 141.701 93.0904 140.977 92.7571 140.461C92.429 139.945 91.9237 139.688 91.2415 139.688ZM104.921 142.656C104.921 143.375 104.827 144.013 104.64 144.57C104.452 145.128 104.179 145.599 103.82 145.984C103.46 146.365 103.028 146.656 102.523 146.859C102.017 147.057 101.447 147.156 100.812 147.156C100.218 147.156 99.6737 147.057 99.179 146.859C98.6842 146.656 98.2545 146.365 97.8899 145.984C97.5305 145.599 97.2519 145.128 97.054 144.57C96.856 144.013 96.7571 143.375 96.7571 142.656C96.7571 141.703 96.9211 140.896 97.2493 140.234C97.5826 139.568 98.0566 139.06 98.6711 138.711C99.2857 138.362 100.017 138.188 100.866 138.188C101.663 138.188 102.366 138.362 102.976 138.711C103.585 139.06 104.062 139.568 104.406 140.234C104.749 140.901 104.921 141.708 104.921 142.656ZM98.6477 142.656C98.6477 143.286 98.7232 143.826 98.8743 144.273C99.0305 144.721 99.2701 145.065 99.593 145.305C99.9159 145.539 100.333 145.656 100.843 145.656C101.353 145.656 101.77 145.539 102.093 145.305C102.416 145.065 102.653 144.721 102.804 144.273C102.955 143.826 103.031 143.286 103.031 142.656C103.031 142.026 102.955 141.492 102.804 141.055C102.653 140.612 102.416 140.276 102.093 140.047C101.77 139.812 101.351 139.695 100.835 139.695C100.075 139.695 99.5201 139.951 99.1711 140.461C98.8222 140.971 98.6477 141.703 98.6477 142.656ZM108.874 147H107.031V134.844H108.874V147ZM113.335 138.352V147H111.499V138.352H113.335ZM112.429 135.039C112.71 135.039 112.952 135.115 113.156 135.266C113.364 135.417 113.468 135.677 113.468 136.047C113.468 136.411 113.364 136.672 113.156 136.828C112.952 136.979 112.71 137.055 112.429 137.055C112.137 137.055 111.89 136.979 111.687 136.828C111.489 136.672 111.39 136.411 111.39 136.047C111.39 135.677 111.489 135.417 111.687 135.266C111.89 135.115 112.137 135.039 112.429 135.039ZM119.187 145.672C119.426 145.672 119.663 145.651 119.898 145.609C120.132 145.562 120.346 145.508 120.538 145.445V146.836C120.335 146.924 120.072 147 119.749 147.062C119.426 147.125 119.09 147.156 118.741 147.156C118.252 147.156 117.812 147.076 117.421 146.914C117.031 146.747 116.721 146.464 116.491 146.062C116.262 145.661 116.148 145.107 116.148 144.398V139.75H114.968V138.93L116.234 138.281L116.835 136.43H117.991V138.352H120.468V139.75H117.991V144.375C117.991 144.812 118.101 145.138 118.32 145.352C118.538 145.565 118.827 145.672 119.187 145.672ZM125.687 138.188C126.781 138.188 127.606 138.43 128.163 138.914C128.726 139.398 129.007 140.154 129.007 141.18V147H127.702L127.351 145.773H127.288C127.044 146.086 126.791 146.344 126.531 146.547C126.27 146.75 125.968 146.901 125.624 147C125.286 147.104 124.872 147.156 124.382 147.156C123.866 147.156 123.406 147.062 122.999 146.875C122.593 146.682 122.273 146.391 122.038 146C121.804 145.609 121.687 145.115 121.687 144.516C121.687 143.625 122.017 142.956 122.679 142.508C123.346 142.06 124.351 141.812 125.695 141.766L127.195 141.711V141.258C127.195 140.659 127.054 140.232 126.773 139.977C126.497 139.721 126.106 139.594 125.601 139.594C125.169 139.594 124.749 139.656 124.343 139.781C123.937 139.906 123.541 140.06 123.156 140.242L122.562 138.945C122.984 138.721 123.463 138.539 123.999 138.398C124.541 138.258 125.103 138.188 125.687 138.188ZM127.187 142.867L126.07 142.906C125.153 142.938 124.51 143.094 124.14 143.375C123.77 143.656 123.585 144.042 123.585 144.531C123.585 144.958 123.713 145.271 123.968 145.469C124.223 145.661 124.559 145.758 124.976 145.758C125.611 145.758 126.137 145.578 126.554 145.219C126.976 144.854 127.187 144.32 127.187 143.617V142.867ZM136.085 138.188C137.059 138.188 137.817 138.44 138.359 138.945C138.906 139.445 139.179 140.25 139.179 141.359V147H137.343V141.703C137.343 141.031 137.205 140.529 136.929 140.195C136.653 139.857 136.226 139.688 135.648 139.688C134.809 139.688 134.226 139.945 133.898 140.461C133.575 140.977 133.413 141.724 133.413 142.703V147H131.577V138.352H133.007L133.265 139.523H133.366C133.554 139.221 133.786 138.974 134.062 138.781C134.343 138.583 134.656 138.435 134.999 138.336C135.348 138.237 135.71 138.188 136.085 138.188Z" fill="#FEFEFE"/>
<path d="M215.32 147L212.031 137.461H211.96C211.976 137.674 211.994 137.966 212.015 138.336C212.036 138.706 212.054 139.102 212.07 139.523C212.085 139.945 212.093 140.349 212.093 140.734V147H210.39V135.578H213.023L216.187 144.695H216.234L219.507 135.578H222.132V147H220.343V140.641C220.343 140.292 220.348 139.914 220.359 139.508C220.374 139.102 220.39 138.716 220.406 138.352C220.426 137.987 220.442 137.695 220.452 137.477H220.39L216.976 147H215.32ZM228.398 138.188C229.169 138.188 229.83 138.346 230.382 138.664C230.934 138.982 231.359 139.432 231.656 140.016C231.952 140.599 232.101 141.297 232.101 142.109V143.094H226.327C226.348 143.932 226.572 144.578 226.999 145.031C227.432 145.484 228.036 145.711 228.812 145.711C229.364 145.711 229.859 145.659 230.296 145.555C230.739 145.445 231.195 145.286 231.663 145.078V146.57C231.231 146.773 230.791 146.922 230.343 147.016C229.895 147.109 229.359 147.156 228.734 147.156C227.885 147.156 227.137 146.992 226.491 146.664C225.851 146.331 225.348 145.836 224.984 145.18C224.624 144.523 224.445 143.708 224.445 142.734C224.445 141.766 224.609 140.943 224.937 140.266C225.265 139.589 225.726 139.073 226.32 138.719C226.913 138.365 227.606 138.188 228.398 138.188ZM228.398 139.57C227.82 139.57 227.351 139.758 226.991 140.133C226.637 140.508 226.429 141.057 226.366 141.781H230.304C230.299 141.349 230.226 140.966 230.085 140.633C229.95 140.299 229.741 140.039 229.46 139.852C229.184 139.664 228.83 139.57 228.398 139.57ZM238.679 138.188C239.653 138.188 240.411 138.44 240.952 138.945C241.499 139.445 241.773 140.25 241.773 141.359V147H239.937V141.703C239.937 141.031 239.799 140.529 239.523 140.195C239.247 139.857 238.82 139.688 238.241 139.688C237.403 139.688 236.82 139.945 236.491 140.461C236.169 140.977 236.007 141.724 236.007 142.703V147H234.171V138.352H235.601L235.859 139.523H235.96C236.148 139.221 236.379 138.974 236.656 138.781C236.937 138.583 237.249 138.435 237.593 138.336C237.942 138.237 238.304 138.188 238.679 138.188ZM247.562 145.672C247.801 145.672 248.038 145.651 248.273 145.609C248.507 145.562 248.721 145.508 248.913 145.445V146.836C248.71 146.924 248.447 147 248.124 147.062C247.801 147.125 247.465 147.156 247.116 147.156C246.627 147.156 246.187 147.076 245.796 146.914C245.406 146.747 245.096 146.464 244.866 146.062C244.637 145.661 244.523 145.107 244.523 144.398V139.75H243.343V138.93L244.609 138.281L245.21 136.43H246.366V138.352H248.843V139.75H246.366V144.375C246.366 144.812 246.476 145.138 246.695 145.352C246.913 145.565 247.202 145.672 247.562 145.672ZM258.327 142.656C258.327 143.375 258.234 144.013 258.046 144.57C257.859 145.128 257.585 145.599 257.226 145.984C256.866 146.365 256.434 146.656 255.929 146.859C255.424 147.057 254.853 147.156 254.218 147.156C253.624 147.156 253.08 147.057 252.585 146.859C252.09 146.656 251.661 146.365 251.296 145.984C250.937 145.599 250.658 145.128 250.46 144.57C250.262 144.013 250.163 143.375 250.163 142.656C250.163 141.703 250.327 140.896 250.656 140.234C250.989 139.568 251.463 139.06 252.077 138.711C252.692 138.362 253.424 138.188 254.273 138.188C255.07 138.188 255.773 138.362 256.382 138.711C256.991 139.06 257.468 139.568 257.812 140.234C258.156 140.901 258.327 141.708 258.327 142.656ZM252.054 142.656C252.054 143.286 252.129 143.826 252.281 144.273C252.437 144.721 252.676 145.065 252.999 145.305C253.322 145.539 253.739 145.656 254.249 145.656C254.76 145.656 255.176 145.539 255.499 145.305C255.822 145.065 256.059 144.721 256.21 144.273C256.361 143.826 256.437 143.286 256.437 142.656C256.437 142.026 256.361 141.492 256.21 141.055C256.059 140.612 255.822 140.276 255.499 140.047C255.176 139.812 254.757 139.695 254.241 139.695C253.481 139.695 252.926 139.951 252.577 140.461C252.228 140.971 252.054 141.703 252.054 142.656ZM264.82 138.188C264.965 138.188 265.124 138.195 265.296 138.211C265.468 138.227 265.616 138.247 265.741 138.273L265.57 139.992C265.46 139.961 265.325 139.938 265.163 139.922C265.007 139.906 264.866 139.898 264.741 139.898C264.413 139.898 264.101 139.953 263.804 140.062C263.507 140.167 263.244 140.328 263.015 140.547C262.786 140.76 262.606 141.029 262.476 141.352C262.346 141.674 262.281 142.049 262.281 142.477V147H260.437V138.352H261.874L262.124 139.875H262.21C262.382 139.568 262.596 139.286 262.851 139.031C263.106 138.776 263.398 138.573 263.726 138.422C264.059 138.266 264.424 138.188 264.82 138.188Z" fill="#FEFEFE"/>
<defs>
<filter id="filter0_d_47_241" x="0" y="0" width="342.51" height="219" filterUnits="userSpaceOnUse" color-interpolation-filters="sRGB">
<feFlood flood-opacity="0" result="BackgroundImageFix"/>
<feColorMatrix in="SourceAlpha" type="matrix" values="0 0 0 0 0 0 0 0 0 0 0 0 0 0 0 0 0 0 127 0" result="hardAlpha"/>
<feOffset dx="5" dy="10"/>
<feGaussianBlur stdDeviation="10"/>
<feComposite in2="hardAlpha" operator="out"/>
<feColorMatrix type="matrix" values="0 0 0 0 0 0 0 0 0 0 0 0 0 0 0 0 0 0 0.1 0"/>
<feBlend mode="normal" in2="BackgroundImageFix" result="effect1_dropShadow_47_241"/>
<feBlend mode="normal" in="SourceGraphic" in2="effect1_dropShadow_47_241" result="shape"/>
</filter>
</defs>
</svg>
