<svg width="145" height="157" viewBox="0 0 145 157" fill="none" xmlns="http://www.w3.org/2000/svg">
<g filter="url(#filter0_d_39_46)">
<path d="M108.515 34.3735L108.516 34.3742C113.357 37.1502 115.252 38.7605 116.229 40.807C117.282 43.0122 117.471 46.0802 117.477 52.5454C117.477 52.5456 117.477 52.5458 117.477 52.546L117.5 86.6931V86.694C117.506 92.2556 117.053 94.6894 115.762 96.5519C114.369 98.5631 111.791 100.26 106.167 103.495L106.167 103.496L76.487 120.587L76.486 120.587C71.6521 123.374 69.3006 124.207 67.0255 124.027C64.5755 123.832 61.8089 122.458 56.188 119.23L56.1878 119.229L26.4853 102.173L26.4839 102.172C21.6429 99.3959 19.7478 97.7856 18.7707 95.7391C17.7177 93.5339 17.5288 90.4659 17.5229 84.0007C17.5229 84.0005 17.5229 84.0003 17.5229 84.0001L17.5001 49.8645L17.5001 49.8636C17.4943 44.3022 17.9469 41.8647 19.2382 39.9989C20.6318 37.9853 23.2105 36.2859 28.8327 33.0507L28.8334 33.0503L58.513 15.9593L58.514 15.9588C63.3466 13.1729 65.6983 12.342 67.9733 12.5235C70.4247 12.7191 73.1914 14.094 78.8122 17.3167C78.8127 17.317 78.8132 17.3173 78.8137 17.3176L108.515 34.3735Z" stroke="#779DCA" stroke-width="5" shape-rendering="crispEdges"/>
</g>
<path d="M58.05 71.95H82.725" stroke="#779DCA" stroke-width="4" stroke-linecap="round" stroke-linejoin="round"/>
<path d="M58.05 57.25H71.175" stroke="#779DCA" stroke-width="4" stroke-linecap="round" stroke-linejoin="round"/>
<path d="M58.05 85.6001H82.725" stroke="#779DCA" stroke-width="4" stroke-linecap="round" stroke-linejoin="round"/>
<path d="M79.05 46.2559V62.7488L84.7335 59.4502" stroke="#779DCA" stroke-width="4" stroke-linecap="round" stroke-linejoin="round"/>
<path d="M90.7723 45.5959V62.7486L85.0887 59.45" stroke="#779DCA" stroke-width="4" stroke-linecap="round" stroke-linejoin="round"/>
<path d="M59.8375 44.7383H90.7123V96.6251H48.6882V56.3163" stroke="#779DCA" stroke-width="4" stroke-linecap="round" stroke-linejoin="round"/>
<path d="M48.6882 40.45V48.5975M52.5475 44.7381H44.4" stroke="#779DCA" stroke-width="4" stroke-linecap="round" stroke-linejoin="round"/>
<defs>
<filter id="filter0_d_39_46" x="0" y="0" width="145" height="156.55" filterUnits="userSpaceOnUse" color-interpolation-filters="sRGB">
<feFlood flood-opacity="0" result="BackgroundImageFix"/>
<feColorMatrix in="SourceAlpha" type="matrix" values="0 0 0 0 0 0 0 0 0 0 0 0 0 0 0 0 0 0 127 0" result="hardAlpha"/>
<feOffset dx="5" dy="10"/>
<feGaussianBlur stdDeviation="10"/>
<feComposite in2="hardAlpha" operator="out"/>
<feColorMatrix type="matrix" values="0 0 0 0 0 0 0 0 0 0 0 0 0 0 0 0 0 0 0.1 0"/>
<feBlend mode="normal" in2="BackgroundImageFix" result="effect1_dropShadow_39_46"/>
<feBlend mode="normal" in="SourceGraphic" in2="effect1_dropShadow_39_46" result="shape"/>
</filter>
</defs>
</svg>
