<svg width="102" height="114" viewBox="0 0 102 114" fill="none" xmlns="http://www.w3.org/2000/svg">
<path d="M91.3027 22.9709L91.3035 22.9714C96.0006 25.6774 98.0866 27.3712 99.1739 29.6589C100.307 32.0429 100.472 35.2764 100.478 41.5219C100.478 41.5221 100.478 41.5222 100.478 41.5223L100.5 74.8487V74.8492C100.506 80.2728 100.082 82.9254 98.645 85.0091C97.1473 87.1808 94.4301 88.938 89.023 92.064L89.0226 92.0642L60.191 108.744L60.1904 108.745C55.4983 111.462 52.9891 112.424 50.4662 112.223C47.8376 112.013 44.9579 110.54 39.5513 107.42L39.5512 107.42L10.6973 90.7734L10.6965 90.7729C5.9994 88.0669 3.91341 86.3731 2.82615 84.0854C1.69313 81.7014 1.52794 78.4679 1.52229 72.2224C1.52229 72.2222 1.52229 72.2221 1.52229 72.222L1.50006 38.9067L1.50006 38.9062C1.49449 33.4828 1.91794 30.8269 3.35547 28.7401C4.85315 26.566 7.57065 24.8059 12.977 21.6803L12.9774 21.6801L41.809 5.00006L41.8096 4.99971C46.501 2.28268 49.0102 1.32364 51.5331 1.52589C54.1625 1.73668 57.0423 3.20992 62.4488 6.32425C62.4491 6.32442 62.4494 6.32459 62.4497 6.32475L91.3027 22.9709Z" stroke="#E3E3E3" stroke-width="3"/>
<path d="M16 81.5L29 59.5L43 72.5L56.5 49L71 59.5L86.5 34" stroke="#14A7A0" stroke-width="3" stroke-linecap="round" stroke-linejoin="round"/>
<path d="M88 43.5L86.5 34L77 37" stroke="#14A7A0" stroke-width="3" stroke-linecap="round" stroke-linejoin="round"/>
</svg>
